[
    {
        "name": "Matematikk S1",
        "code": "",
        "extraPoints": 0.5,
        "passOnly": false,
        "hasExams": true,
        "studyLine": 0
    },
    {
        "name": "Matematikk S2",
        "code": "",
        "extraPoints": 0.5,
        "passOnly": false,
        "hasExams": true,
        "studyLine": 0
    },
    {
        "name": "Matematikk R1",
        "code": "",
        "extraPoints": 0.5,
        "passOnly": false,
        "hasExams": true,
        "studyLine": 0
    },
    {
        "name": "Matematikk R2",
        "code": "",
        "extraPoints": 1.0,
        "passOnly": false,
        "hasExams": true,
        "studyLine": 0
    },
    {
        "name": "Fysikk 1",
        "code": "",
        "extraPoints": 0.5,
        "passOnly": false,
        "hasExams": true,
        "studyLine": 0
    },
    {
        "name": "Fysikk 2",
        "code": "",
        "extraPoints": 1.0,
        "passOnly": false,
        "hasExams": true,
        "studyLine": 0
    },
    {
        "name": "Kjemi 1",
        "code": "",
        "extraPoints": 0.5,
        "passOnly": false,
        "hasExams": true,
        "studyLine": 0
    },
    {
        "name": "Kjemi 2",
        "code": "",
        "extraPoints": 0.5,
        "passOnly": false,
        "hasExams": true,
        "studyLine": 0
    },
    {
        "name": "Biologi 1",
        "code": "",
        "extraPoints": 0.5,
        "passOnly": false,
        "hasExams": true,
        "studyLine": 0
    },
    {
        "name": "Biologi 2",
        "code": "",
        "extraPoints": 0.5,
        "passOnly": false,
        "hasExams": true,
        "studyLine": 0
    },
    {
        "name": "Geofag 1",
        "code": "",
        "extraPoints": 0.5,
        "passOnly": false,
        "hasExams": true,
        "studyLine": 0
    },
    {
        "name": "Geofag 2",
        "code": "",
        "extraPoints": 0.5,
        "passOnly": false,
        "hasExams": true,
        "studyLine": 0
    },
    {
        "name": "Informasjonsteknologi 1",
        "code": "",
        "extraPoints": 0.5,
        "passOnly": false,
        "hasExams": true,
        "studyLine": 0
    },
    {
        "name": "Informasjonsteknologi 2",
        "code": "",
        "extraPoints": 0.5,
        "passOnly": false,
        "hasExams": true,
        "studyLine": 0
    },
    {
        "name": "Teknologi og forskningslære 1",
        "code": "",
        "extraPoints": 0.5,
        "passOnly": false,
        "hasExams": true,
        "studyLine": 0
    },
    {
        "name": "Teknologi og forskningslære 2",
        "code": "",
        "extraPoints": 0.5,
        "passOnly": false,
        "hasExams": true,
        "studyLine": 0
    },
    {
        "name": "Vg3 naturbruk",
        "code": "",
        "extraPoints": 0.5,
        "passOnly": false,
        "hasExams": true,
        "studyLine": 0
    }
]